{
	"baseUrl": "http://tv.radiolondra.co.uk:3000/api/news",
	"sourcesUrl": "http://tv.radiolondra.co.uk:3000/api/news/sources",
	"voteUrl": "http://tv.radiolondra.co.uk:3000/api/video/vote",
	"addSourcesUrl": "http://tv.radiolondra.co.uk:3000/api/news/sources/modify",
	"deleteSourcesUrl":"http://tv.radiolondra.co.uk:3000/api/news/sources/delete",
	"addCommentUrl": "http://tv.radiolondra.co.uk:3000/api/news/add/comment",
	"getTrendsUrl": "http://tv.radiolondra.co.uk:3000/api/news/trending"
}